<?xml version="1.0" encoding="utf-8"?>
<!-- Generator: Adobe Illustrator 22.0.1, SVG Export Plug-In . SVG Version: 6.00 Build 0)  -->
<svg version="1.1" xmlns="http://www.w3.org/2000/svg" xmlns:xlink="http://www.w3.org/1999/xlink" x="0px" y="0px"
	 viewBox="0 0 500 500" style="enable-background:new 0 0 500 500;" xml:space="preserve">
<style type="text/css">
	.st0{fill:#F5F5F5;}
	.st1{fill:#E0E0E0;}
	.st2{fill:#37474F;}
	.st3{fill:#FFFFFF;}
	.st4{fill:#455A64;}
	.st5{opacity:0.3;fill:#27DEBF;}
	.st6{opacity:0.5;fill:#FFFFFF;}
	.st7{opacity:0.3;}
	.st8{fill:#27DEBF;}
	.st9{opacity:0.5;}
	.st10{fill:#FAFAFA;}
	.st11{opacity:0.5;fill:#27DEBF;}
	.st12{fill:#B16668;}
	.st13{fill:#263238;}
	.st14{opacity:0.4;}
	.st15{opacity:0.2;}
	.st16{fill:#9A4A4D;}
	.st17{opacity:0.75;fill:#FFFFFF;}
	.st18{opacity:0.1;fill:#27DEBF;}
	.st19{opacity:0.1;}
</style>
<g id="Floor">
	<ellipse id="Floor_4_" class="st0" cx="249.5" cy="345.8" rx="231.2" ry="133.5"/>
</g>
<g id="Shadows">
	<path id="Shadow_24_" class="st1" d="M428.6,369.9l-60.7-35c-1.2-0.7-1.2-1.8,0-2.5l39-22.5c1.2-0.7,3.1-0.7,4.3,0l60.7,35
		c1.2,0.7,1.2,1.8,0,2.5l-39,22.5C431.7,370.6,429.8,370.6,428.6,369.9z"/>
	<ellipse id="Shadow_16_" class="st1" cx="165.9" cy="377.6" rx="101.9" ry="58.8"/>
	<ellipse id="Shadow_7_" class="st1" cx="262.1" cy="365.7" rx="66.4" ry="38.3"/>
</g>
<g id="Plants">
	<g id="Plants_1_">
		<g id="XMLID_574_">
			<g id="XMLID_579_">
				<path id="XMLID_580_" class="st2" d="M64.5,327.7l0.8-13c0,0-0.8-16.6-17.2-31.9c-10-9.3-18.3-4.3-20.3,0.8
					c-2.1,5.1-0.4,12.8,9.4,19.9c15.2,11.3,28,29.1,29.7,41.7L64.5,327.7z"/>
			</g>
			<g id="XMLID_575_">
				<path id="XMLID_576_" class="st3" d="M64,324c-0.3,0-0.5-0.1-0.6-0.4c-7.5-24.8-29.1-39.7-29.3-39.8c-0.3-0.2-0.3-0.5-0.2-0.8
					c0.2-0.3,0.5-0.3,0.8-0.2c0.2,0.2,22.1,15.2,29.7,40.4C64.6,323.6,64.4,323.9,64,324C64.1,324,64.1,324,64,324z"/>
			</g>
		</g>
		<g id="XMLID_548_">
			<g id="XMLID_572_">
				<path id="XMLID_573_" class="st4" d="M65.2,328.2c-0.1-1.4-0.6-2.8-1.5-3.9c-1.6-1.9-4.4-2.4-5.8-4.5c-0.6-1-0.9-2.1-1.3-3.2
					c-0.9-2.4-2.9-4.3-5.2-5.4c-2.3-1.1-5-1.4-7.5-1c-1.9,0.2-3.8,0.8-5.7,1.1c-6.3,0.9-12.2-4.9-18.5-1c-3.8,2.4-3.5,6.5-1.4,9.9
					c1.1,1.8,2.5,3.3,4.1,4.6c1.7,1.4,3.5,2.3,3.7,4.8c0.1,1.8-0.4,3.6-0.4,5.5c0,3,1.7,5.8,4,7.7c2.3,1.9,5.2,3,8.2,3.5
					c2.2,0.4,4.7,0.7,5.9,2.6c0.6,1,0.7,2.1,1,3.3c0.9,3.6,3.7,6.6,7.1,8.3c3.4,1.7,7.3,2.1,11,1.7c3.2-0.3,6.4-1.3,8.9-3.3
					c4.3-3.5,1.8-10.1-1-13.8c-1.2-1.6-2.7-3-3.9-4.7c-2.3-3.3-1.9-6.2-1.7-10.1C65.2,329.6,65.2,328.9,65.2,328.2z"/>
			</g>
			<g id="XMLID_570_">
				<path id="XMLID_571_" class="st3" d="M68.5,352.8c-0.2,0-0.4-0.1-0.5-0.2c-15.3-27.5-39.9-35.3-40.1-35.3
					c-0.3-0.1-0.4-0.3-0.3-0.6c0.1-0.3,0.3-0.4,0.6-0.3c0.3,0.1,25.2,7.9,40.7,35.8c0.1,0.2,0,0.5-0.2,0.6
					C68.6,352.8,68.6,352.8,68.5,352.8z"/>
			</g>
			<g id="XMLID_568_">
				<path id="XMLID_569_" class="st3" d="M53.9,333.8c0,0-0.1,0-0.1,0c-6.7-0.3-16.9,2.4-17,2.4c-0.3,0.1-0.5-0.1-0.6-0.3
					c-0.1-0.3,0.1-0.5,0.3-0.6c0.4-0.1,10.4-2.8,17.3-2.5c0.3,0,0.5,0.2,0.5,0.5C54.3,333.6,54.1,333.8,53.9,333.8z"/>
			</g>
			<g id="XMLID_549_">
				<path id="XMLID_562_" class="st3" d="M49,329.3C49,329.3,49,329.3,49,329.3c-0.3,0-0.5-0.1-0.6-0.4c-0.7-5.2,0.2-10,0.3-10.2
					c0-0.3,0.3-0.4,0.6-0.4c0.3,0,0.4,0.3,0.4,0.6c0,0-0.9,4.8-0.3,9.9C49.4,329,49.3,329.2,49,329.3z"/>
			</g>
		</g>
	</g>
</g>
<g id="Screen_1_">
	<g id="Screen">
		<path id="XMLID_542_" class="st5" d="M460.2,135.5L275.3,28.8c-2.8-1.6-5-0.3-5,2.9v146.4c0,3.2,2.3,7.1,5,8.7l184.9,106.7
			c2.8,1.6,5,0.3,5-2.9l0-146.4C465.3,141.1,463,137.2,460.2,135.5z"/>
		<path id="XMLID_541_" class="st6" d="M460.2,135.5L275.3,28.8c-2.8-1.6-5-0.3-5,2.9v146.4c0,3.2,2.3,7.1,5,8.7l184.9,106.7
			c2.8,1.6,5,0.3,5-2.9l0-146.4C465.3,141.1,463,137.2,460.2,135.5z"/>
		<path class="st5" d="M461.2,266.1v-18.8l-12.2-7l0,14.1L445,252v-23.5l-8.1-4.7v9.4l-4.1-2.3v18.8l-8.1-4.7v-14.1l-4.1-2.3l0-4.7
			l-4.1-2.3v-4.7l-4.1-2.3v4.7l-4.1-2.3v4.7l-4.1-2.3l0,4.7l-8.1-4.7v-14.1l-12.2-7v23.5l-4.1-2.3l0-14.1l-8.1-4.7v14.1l-4.1-2.3
			v-4.7l-8.1-4.7v-9.4l-8.1-4.7v4.7l-4.1-2.4v14.1l-4.1-2.3V184l-4.1-2.3l0-4.7l-4.1-2.3v-4.7l-4.1-2.3v4.7l-4.1-2.3v4.7l-4.1-2.3
			v23.5l-4.1-2.3V184l-12-7v4.8l-8.3-4.8l0-9.4l-4.1-2.3l0-4.7l-4.1-2.3l0-4.7l-4.1-2.3l0,4.7l-4.1-2.3l0,4.7l-4.1-2.3l0,9.4
			l-8.1-4.7v17.6c0,3.2,2.3,7.1,5,8.7l184.9,106.7c2.8,1.6,5,0.3,5-2.9v-22.3L461.2,266.1z"/>
		<g id="XMLID_539_" class="st7">
			<path class="st8" d="M273.1,29.1c0.5,0,1.1,0.2,1.8,0.6l184.9,106.7c2.5,1.4,4.5,5,4.5,7.9l0,146.4c0,0.8-0.2,2.6-1.8,2.6
				c-0.5,0-1.1-0.2-1.8-0.6L275.8,186c-2.5-1.4-4.5-5-4.5-7.9V31.7C271.3,30.9,271.5,29.1,273.1,29.1 M273.1,28.1
				c-1.7,0-2.8,1.3-2.8,3.6v146.4c0,3.2,2.3,7.1,5,8.7l184.9,106.7c0.8,0.5,1.6,0.7,2.3,0.7c1.7,0,2.8-1.3,2.8-3.6l0-146.4
				c0-3.2-2.3-7.1-5-8.7L275.3,28.8C274.5,28.3,273.8,28.1,273.1,28.1L273.1,28.1z"/>
		</g>
		<g>
			<g>
				<path class="st6" d="M323.6,104.6l80.2,46.3c4.8,2.8,8.7,9.5,8.7,15V188c0,5.5-3.9,7.8-8.7,5l-80.2-46.3
					c-4.8-2.8-8.7-9.5-8.7-15l0-22.2C315,104,318.9,101.8,323.6,104.6z"/>
				<g class="st9">
					<path class="st8" d="M407.7,194.7c-1.3,0-2.7-0.4-4.1-1.3l-80.2-46.3c-4.9-2.8-8.9-9.8-8.9-15.4v-22.2c0-2.9,1-5,2.8-6
						c1.8-1,4.1-0.8,6.6,0.6l80.2,46.3c4.9,2.8,8.9,9.8,8.9,15.4V188c0,2.9-1,5-2.8,6C409.4,194.5,408.6,194.7,407.7,194.7z
						 M319.8,103.9c-0.7,0-1.4,0.2-2,0.5c-1.5,0.9-2.3,2.7-2.3,5.2v22.2c0,5.4,3.8,11.9,8.4,14.6l80.2,46.3c2.2,1.2,4.1,1.5,5.6,0.6
						c1.5-0.9,2.3-2.7,2.3-5.2v-22.2c0-5.4-3.8-11.9-8.4-14.6L323.4,105C322.1,104.2,320.9,103.9,319.8,103.9z"/>
				</g>
				<g class="st9">
					<path class="st8" d="M336.4,122.7c0.8,0.5,1.5,1.1,2.2,1.8c0.7,0.7,1.2,1.5,1.7,2.4c0.5,0.8,0.9,1.7,1.1,2.5
						c0.3,0.8,0.4,1.6,0.4,2.2c0,0.2,0,0.3-0.1,0.4c-0.1,0.1-0.2,0.1-0.3,0l-2.5-1.4c-0.2-0.1-0.3-0.2-0.4-0.4
						c-0.1-0.1-0.2-0.3-0.3-0.5c0-0.1-0.1-0.2-0.2-0.4c-0.1-0.2-0.2-0.4-0.3-0.6c-0.2-0.2-0.3-0.5-0.6-0.7c-0.2-0.2-0.5-0.4-0.8-0.6
						c-0.2-0.1-0.5-0.2-0.7-0.3c-0.2-0.1-0.4-0.1-0.6-0.1c-0.2,0-0.3,0.1-0.4,0.2c-0.1,0.1-0.2,0.3-0.2,0.6c0,0.3,0.1,0.6,0.2,0.8
						c0.1,0.3,0.3,0.6,0.6,0.9c0.3,0.3,0.7,0.7,1.1,1.1c0.5,0.4,1,0.9,1.7,1.5c0.7,0.6,1.3,1.2,1.8,1.8c0.5,0.6,0.9,1.3,1.3,2
						c0.3,0.7,0.6,1.4,0.8,2.2c0.2,0.8,0.3,1.6,0.3,2.5c0,1-0.1,1.8-0.4,2.4c-0.3,0.6-0.7,1-1.2,1.3c-0.5,0.2-1.1,0.3-1.8,0.2
						c-0.7-0.1-1.5-0.4-2.3-0.9c-0.9-0.5-1.6-1.1-2.3-1.9c-0.7-0.8-1.3-1.6-1.8-2.4c-0.5-0.9-0.9-1.7-1.2-2.6
						c-0.3-0.9-0.4-1.7-0.5-2.4c0-0.2,0-0.3,0.1-0.4c0.1-0.1,0.2-0.1,0.3,0l2.5,1.4c0.2,0.1,0.3,0.2,0.4,0.3
						c0.1,0.1,0.2,0.3,0.3,0.5c0,0.1,0.1,0.3,0.2,0.5c0.1,0.2,0.2,0.5,0.4,0.8c0.2,0.3,0.4,0.6,0.6,0.8c0.3,0.3,0.6,0.5,0.9,0.7
						c0.7,0.4,1.2,0.6,1.7,0.6c0.4,0,0.7-0.2,0.7-0.8c0-0.3-0.1-0.6-0.2-0.9c-0.2-0.3-0.4-0.6-0.7-1c-0.3-0.4-0.7-0.8-1.2-1.2
						c-0.5-0.4-1.1-1-1.8-1.6c-1.3-1.2-2.2-2.4-2.8-3.8c-0.6-1.3-0.9-2.8-0.9-4.5c0-0.8,0.1-1.5,0.4-2.2c0.2-0.6,0.6-1.1,1.1-1.4
						c0.5-0.3,1-0.4,1.7-0.4C334.9,122,335.6,122.3,336.4,122.7z"/>
					<path class="st8" d="M355.1,133.8c0.1,0.1,0.3,0.2,0.4,0.4c0.1,0.2,0.2,0.4,0.2,0.6v3.1c0,0.2-0.1,0.4-0.2,0.5
						c-0.1,0.1-0.2,0.1-0.4,0l-3.3-1.9v14.8c0,0.2,0,0.4-0.2,0.5c-0.1,0.1-0.2,0.1-0.4,0l-2.5-1.4c-0.1-0.1-0.3-0.2-0.4-0.4
						c-0.1-0.2-0.2-0.4-0.2-0.6v-14.8l-3.3-1.9c-0.1-0.1-0.3-0.2-0.4-0.4c-0.1-0.2-0.2-0.4-0.2-0.6v-3.1c0-0.2,0.1-0.4,0.2-0.5
						c0.1-0.1,0.2-0.1,0.4,0L355.1,133.8z"/>
					<path class="st8" d="M364.3,139.1c0.3,0.1,0.4,0.4,0.6,0.6c0.1,0.3,0.2,0.6,0.3,0.8l4.1,20.6c0,0.2,0.1,0.4,0.1,0.5
						c0,0.2,0,0.3-0.1,0.4c-0.1,0.1-0.2,0.1-0.3,0l-2.4-1.4c-0.3-0.1-0.4-0.3-0.5-0.6c-0.1-0.2-0.2-0.4-0.2-0.6l-0.5-2.7l-5-2.9
						l-0.5,2.1c0,0.1-0.1,0.3-0.2,0.4c-0.1,0.1-0.3,0.1-0.5-0.1l-2.4-1.4c-0.1-0.1-0.2-0.2-0.3-0.4c-0.1-0.2-0.1-0.3-0.1-0.5
						c0-0.1,0-0.2,0.1-0.4l4.1-15.8c0-0.2,0.1-0.3,0.3-0.5c0.1-0.1,0.3-0.1,0.6,0L364.3,139.1z M361.3,150l3,1.8l-1.5-7.8L361.3,150
						z"/>
					<path class="st8" d="M377.8,147c0.8,0.5,1.6,1,2.2,1.7c0.6,0.6,1.2,1.4,1.7,2.2c0.5,0.8,0.8,1.7,1,2.7c0.2,1,0.4,2,0.4,3.1
						c0,1.4-0.2,2.5-0.6,3.3c-0.4,0.7-0.9,1.1-1.7,1.2l2.3,8.2c0,0.1,0.1,0.3,0.1,0.4c0,0.2,0,0.3-0.1,0.4c-0.1,0.1-0.2,0.1-0.3,0
						l-2.6-1.5c-0.3-0.1-0.4-0.3-0.5-0.6c-0.1-0.2-0.2-0.5-0.3-0.7l-2.1-7.4l-1.7-1v6.2c0,0.2-0.1,0.4-0.2,0.5
						c-0.1,0.1-0.2,0.1-0.4,0l-2.5-1.4c-0.1-0.1-0.3-0.2-0.4-0.4c-0.1-0.2-0.2-0.4-0.2-0.6v-18.7c0-0.2,0-0.4,0.2-0.5
						c0.1-0.1,0.2-0.1,0.4,0L377.8,147z M375.7,154.5l2.1,1.2c0.5,0.3,1,0.4,1.3,0.3c0.3-0.1,0.5-0.6,0.5-1.4c0-0.8-0.2-1.5-0.5-2
						c-0.3-0.5-0.8-0.9-1.3-1.2l-2.1-1.2V154.5z"/>
					<path class="st8" d="M396.2,157.6c0.1,0.1,0.3,0.2,0.4,0.4c0.1,0.2,0.2,0.4,0.2,0.6v3.1c0,0.2-0.1,0.4-0.2,0.5
						c-0.1,0.1-0.2,0.1-0.4,0l-3.3-1.9v14.8c0,0.2,0,0.4-0.2,0.5c-0.1,0.1-0.2,0.1-0.4,0l-2.5-1.4c-0.1-0.1-0.3-0.2-0.4-0.4
						c-0.1-0.2-0.2-0.4-0.2-0.6v-14.8l-3.3-1.9c-0.1-0.1-0.3-0.2-0.4-0.4c-0.1-0.2-0.2-0.4-0.2-0.6v-3.1c0-0.2,0.1-0.4,0.2-0.5
						c0.1-0.1,0.2-0.1,0.4,0L396.2,157.6z"/>
				</g>
			</g>
			<g>
				<path class="st5" d="M288.6,45.3c3.4,1.9,6.1,6.7,6.1,10.6c0,3.9-2.7,5.5-6.1,3.5c-3.4-1.9-6.1-6.7-6.1-10.6
					C282.5,45,285.2,43.4,288.6,45.3z"/>
				<path id="XMLID_532_" class="st10" d="M292.1,53.3c0-0.7-0.2-1.4-0.4-2l0,0l0,0c-0.3-0.7-0.8-1.3-1.3-1.6
					c-0.9-0.5-1.6,0.5-1.7,1.8c-0.1-1.4-0.8-3.3-1.7-3.8c-0.5-0.3-1-0.2-1.3,0.1l0,0l0,0c-0.3,0.3-0.4,0.8-0.4,1.5
					c0,2.1,1.3,4,2.3,6l1.1,2.1l1.1-0.8C290.8,55.8,292.1,55.4,292.1,53.3z"/>
			</g>
			<g>
				<path class="st5" d="M306.9,55.9c3.4,1.9,6.1,6.7,6.1,10.6c0,3.9-2.7,5.5-6.1,3.5c-3.4-1.9-6.1-6.7-6.1-10.6
					C300.8,55.5,303.5,53.9,306.9,55.9z"/>
				<path id="XMLID_533_" class="st10" d="M310.3,63.8c0-0.7-0.2-1.4-0.4-2l0,0l0,0c-0.3-0.7-0.8-1.3-1.3-1.6
					c-0.9-0.5-1.6,0.5-1.7,1.8c-0.1-1.4-0.8-3.3-1.7-3.8c-0.5-0.3-1-0.2-1.3,0.1l0,0l0,0c-0.3,0.3-0.4,0.8-0.4,1.5
					c0,2.1,1.3,4,2.3,6l1.1,2.1l1.1-0.8C309,66.3,310.3,65.9,310.3,63.8z"/>
			</g>
			<g>
				<path class="st5" d="M325.1,66.4c3.4,1.9,6.1,6.7,6.1,10.6c0,3.9-2.7,5.5-6.1,3.5c-3.4-1.9-6.1-6.7-6.1-10.6
					C319,66.1,321.8,64.5,325.1,66.4z"/>
				<path id="XMLID_534_" class="st10" d="M328.6,74.4c0-0.7-0.2-1.4-0.4-2l0,0l0,0c-0.3-0.7-0.8-1.3-1.3-1.6
					c-0.9-0.5-1.6,0.5-1.7,1.8c-0.1-1.4-0.8-3.3-1.7-3.8c-0.5-0.3-1-0.2-1.3,0.1l0,0l0,0c-0.3,0.3-0.4,0.8-0.4,1.5
					c0,2.1,1.3,4,2.3,6l1.1,2.1l1.1-0.8C327.3,76.9,328.6,76.5,328.6,74.4z"/>
			</g>
			<g>
				<path class="st10" d="M343,78.2l85.2,49.2c2.4,1.4,4.3,4.6,4.3,7.2c0,2.6-1.9,3.6-4.3,2.2L343,87.5c-2.4-1.4-4.3-4.6-4.3-7.2
					S340.6,76.8,343,78.2z"/>
				<path class="st11" d="M341.1,81.7c0,1.3,1,2.9,2.2,3.6l85.6,49.5c1.2,0.7,2.2,0.2,2.2-1.1c0-1.3-1-2.9-2.2-3.6l-85.6-49.5
					C342.1,79.9,341.1,80.4,341.1,81.7z"/>
			</g>
			<g class="st7">
				<path class="st8" d="M437,135.3c0-0.1-0.1-0.2,0-0.3c0-0.1,0-0.2,0.1-0.2l1.9-1.2c0,0,0.1-0.1,0.2-0.1c0.1,0,0.1,0,0.2,0
					l1.1,0.6c0.1,0,0.1,0.1,0.2,0.2c0,0.1,0.1,0.2,0.1,0.3v9c0,0.1,0,0.2-0.1,0.2c0,0-0.1,0.1-0.2,0l-1.2-0.7
					c-0.1,0-0.1-0.1-0.2-0.2c0-0.1-0.1-0.2-0.1-0.3v-6.1l-1.1,0.6c-0.1,0-0.1,0-0.2,0c-0.1-0.1-0.1-0.1-0.2-0.2L437,135.3z"/>
				<path class="st8" d="M445.1,136.7c0.5,0.3,0.8,0.6,1.2,1c0.3,0.4,0.6,0.8,0.8,1.3c0.2,0.5,0.4,1,0.5,1.5c0.1,0.5,0.2,1,0.2,1.5
					c0,0.4,0,0.8,0,1.3c0,0.4,0,0.8,0,1.2c0,0.5-0.1,0.9-0.2,1.3c-0.1,0.4-0.3,0.7-0.5,0.9c-0.2,0.2-0.5,0.3-0.8,0.4
					c-0.3,0-0.7-0.1-1.2-0.4c-0.5-0.3-0.8-0.6-1.2-1c-0.3-0.4-0.6-0.8-0.8-1.3c-0.2-0.5-0.4-1-0.5-1.5c-0.1-0.5-0.2-1-0.2-1.5
					c0-0.4,0-0.8,0-1.2c0-0.4,0-0.8,0-1.2c0-0.5,0.1-0.9,0.2-1.3c0.1-0.4,0.3-0.7,0.5-0.9c0.2-0.2,0.5-0.3,0.8-0.4
					C444.3,136.3,444.7,136.5,445.1,136.7z M446.1,143.4c0-0.8,0-1.5,0-2.3c0-0.2,0-0.5-0.1-0.7c0-0.2-0.1-0.4-0.2-0.6
					c-0.1-0.2-0.2-0.4-0.3-0.5c-0.1-0.2-0.3-0.3-0.5-0.4c-0.2-0.1-0.3-0.1-0.5-0.1c-0.1,0-0.2,0.1-0.3,0.2c-0.1,0.1-0.1,0.2-0.2,0.4
					c0,0.2-0.1,0.4-0.1,0.6c0,0.7,0,1.5,0,2.3c0,0.2,0,0.5,0.1,0.7c0,0.2,0.1,0.4,0.2,0.6c0.1,0.2,0.2,0.4,0.3,0.5
					c0.1,0.2,0.3,0.3,0.5,0.4c0.2,0.1,0.3,0.1,0.5,0.1c0.1,0,0.2-0.1,0.3-0.2c0.1-0.1,0.1-0.2,0.2-0.4
					C446.1,143.9,446.1,143.7,446.1,143.4z"/>
				<path class="st8" d="M454.4,145.3c0,0.3,0,0.5-0.1,0.7c0,0.2-0.1,0.4-0.2,0.6c-0.1,0.2-0.2,0.4-0.3,0.5
					c-0.1,0.1-0.3,0.3-0.5,0.4l-1.3,0.7l2.3,1.3c0.1,0,0.1,0.1,0.2,0.2c0,0.1,0.1,0.2,0.1,0.3v1.5c0,0.1,0,0.2-0.1,0.2
					c0,0-0.1,0.1-0.2,0l-4.8-2.7c-0.1,0-0.1-0.1-0.2-0.2c0-0.1-0.1-0.2-0.1-0.3v-1.2c0-0.1,0-0.3,0.1-0.4c0-0.1,0.1-0.2,0.2-0.3
					l2.7-1.4c0.2-0.1,0.3-0.3,0.4-0.4c0.1-0.2,0.1-0.3,0.1-0.5c0-0.1,0-0.2,0-0.3c0-0.1,0-0.3-0.1-0.4c-0.1-0.1-0.1-0.3-0.2-0.4
					c-0.1-0.1-0.2-0.3-0.4-0.4c-0.2-0.1-0.3-0.1-0.4-0.1c-0.1,0-0.2,0.1-0.2,0.2c-0.1,0.1-0.1,0.2-0.1,0.3c0,0.1,0,0.2-0.1,0.2
					c0,0.1-0.1,0.2-0.1,0.2c-0.1,0-0.1,0-0.2-0.1l-1.1-0.6c-0.1,0-0.1-0.1-0.1-0.2c0-0.1-0.1-0.2-0.1-0.2c0-0.4,0.1-0.7,0.2-1.1
					c0.1-0.3,0.3-0.6,0.5-0.8c0.2-0.2,0.5-0.3,0.8-0.3c0.3,0,0.7,0.1,1.1,0.3c0.4,0.2,0.7,0.5,1,0.9c0.3,0.4,0.6,0.7,0.8,1.2
					c0.2,0.4,0.4,0.9,0.5,1.3C454.3,144.4,454.4,144.9,454.4,145.3z"/>
				<path class="st8" d="M457.6,150.8c0,0.1,0.1,0.2,0.1,0.3c0.1,0.1,0.1,0.2,0.2,0.4c0.1,0.1,0.2,0.2,0.3,0.4
					c0.1,0.1,0.2,0.2,0.4,0.3c0.1,0.1,0.2,0.1,0.4,0.1c0.1,0,0.2,0,0.3-0.1c0.1,0,0.2-0.1,0.2-0.3c0.1-0.1,0.1-0.3,0.1-0.5
					c0-0.3-0.1-0.6-0.2-0.9c-0.2-0.3-0.4-0.5-0.7-0.7c-0.1,0-0.2-0.1-0.2-0.1c-0.1,0-0.1,0-0.2,0c-0.1,0-0.1,0-0.2,0
					c-0.1,0-0.1,0-0.1,0l-1.4-0.8c-0.1,0-0.1-0.1-0.2-0.2c0-0.1-0.1-0.2-0.1-0.3l0.3-4.8c0-0.1,0-0.2,0.1-0.2c0,0,0.1-0.1,0.2,0
					l3.9,2.2c0.1,0,0.1,0.1,0.2,0.2c0,0.1,0.1,0.2,0.1,0.3v1.5c0,0.1,0,0.2-0.1,0.2c0,0-0.1,0.1-0.2,0l-2.6-1.5l-0.1,1.2
					c0.1,0,0.2,0,0.4,0c0.1,0,0.3,0.1,0.5,0.2c0.3,0.2,0.7,0.5,1,0.8c0.3,0.3,0.6,0.7,0.8,1.1c0.2,0.4,0.4,0.8,0.5,1.3
					c0.1,0.5,0.2,1,0.2,1.5c0,0.6-0.1,1-0.2,1.4c-0.1,0.3-0.3,0.6-0.6,0.8c-0.2,0.2-0.5,0.2-0.8,0.2c-0.3,0-0.7-0.2-1-0.4
					c-0.4-0.2-0.8-0.5-1.1-0.9c-0.3-0.3-0.6-0.7-0.8-1.1c-0.2-0.4-0.4-0.8-0.5-1.2c-0.1-0.4-0.2-0.8-0.2-1.2c0-0.1,0-0.1,0.1-0.2
					c0,0,0.1,0,0.1,0l1.1,0.7c0.1,0.1,0.2,0.1,0.2,0.2C457.5,150.7,457.5,150.8,457.6,150.8z"/>
			</g>
		</g>
	</g>
</g>
<g id="Character_1_">
	<g id="Character">
		<g>
			<g id="XMLID_3409_">
				<g id="XMLID_3414_">
					<g id="XMLID_3423_">
						<path id="XMLID_3424_" class="st12" d="M243.8,354.6c-0.1-0.2-5.6-9.7-5.6-9.7s1.2,0.7,6.7-2.4c2.8-1.6,5.7-4.4,5.7-4.4
							l3.7,7.1c2.3,2.5,7.2-0.2,12.8-2.4c0.9-0.4,1.9-0.8,2.8-1.2l0.1,0c3.1-1,6.7,0.1,4.1,3.6c-2.5,3.5-7.6,5.9-12.2,8
							C256.2,355.7,246.3,360.2,243.8,354.6z"/>
					</g>
					<g id="XMLID_3415_">
						<path id="XMLID_3422_" class="st13" d="M284.7,342.9c0,0,0.9,1,1.3,3c0.2,1.2-1.6,5.8-6,9.5c-4.4,3.7-10.5,5.4-13.2,7
							c-2.7,1.6-4.9,3.9-8.1,5.7c-3.3,1.8-6.4,3-10.4,1.7c-0.9-0.8-2.2-2.9-2-3.1C246.6,366,284.7,342.9,284.7,342.9z"/>
						<path id="XMLID_3421_" class="st8" d="M255.4,345.9c2.6,0.9,6.9-1.3,11.6-3.1c4.5-1.7,9.3-4.7,12.7-4.5c3.4,0.3,7,3.3,4,9.2
							c-0.9,1.7-2.8,4.8-4.7,6.1c-4.8,3.3-9.5,4.7-12.7,6.4c-4.1,2.2-6,4.8-10,6.4c-5.1,2-8.8,1.5-10.1,0.3
							c-1.3-1.2-5.1-12.4-2.8-12.7c0,0,1.9,3.4,9.6-2.4C256.5,349,255.8,346.7,255.4,345.9z"/>
						<path id="XMLID_531_" class="st14" d="M255.4,345.9c2.6,0.9,6.9-1.3,11.6-3.1c4.5-1.7,9.3-4.7,12.7-4.5c3.4,0.3,7,3.3,4,9.2
							c-0.9,1.7-2.8,4.8-4.7,6.1c-4.8,3.3-9.5,4.7-12.7,6.4c-4.1,2.2-6,4.8-10,6.4c-5.1,2-8.8,1.5-10.1,0.3
							c-1.3-1.2-5.1-12.4-2.8-12.7c0,0,1.9,3.4,9.6-2.4C256.5,349,255.8,346.7,255.4,345.9z"/>
						<path id="XMLID_3418_" class="st10" d="M271.7,348.2c0,0-1.8-4.7-5.6-5c0,0-1.3-0.2-1.9,0.8c0,0,3.4-0.4,6,5c0,0,0.3,0.3,1,0
							C271.4,348.8,271.9,348.6,271.7,348.2z"/>
						<path id="XMLID_3417_" class="st10" d="M261.2,345.1c0,0,0-0.2,0.8-0.5c0.6-0.3,1-0.1,1-0.1s3,0.5,4.8,5.4c0,0,0.1,0.6-0.6,1
							c-0.8,0.4-1.1-0.2-1.1-0.2S264.1,345.4,261.2,345.1z"/>
						<path id="XMLID_3416_" class="st10" d="M258.4,346c0,0,0.1-0.3,0.7-0.5c0.8-0.2,1.1,0.1,1.1,0.1s2.4,1.4,3.5,5.6
							c0,0,0.3,0.7-0.7,1c-1,0.3-1-0.5-1-0.5S260.2,346.4,258.4,346z"/>
					</g>
				</g>
				<g id="XMLID_3410_">
					<g id="XMLID_3411_">
						<path id="XMLID_3413_" class="st2" d="M221.9,285.8c7.7,11.9,31,53.8,31,53.8s-5.7,8.7-14.7,7.7l-34-50.8L221.9,285.8z"/>
					</g>
				</g>
			</g>
			<g id="XMLID_3392_">
				<g id="XMLID_3395_">
					<g id="XMLID_3407_">
						<path id="XMLID_3408_" class="st12" d="M276.3,372.1c-1.2-1.2-6.4-9.7-6.4-9.7s3.9,1.3,9.7-1.4c2.9-1.3,5.1-5.3,5.1-5.3
							l4.4,8.4c2.1,2.7,6.9,0.7,12.6-1c1-0.3,1.9-0.6,2.9-1l0.1,0c3.1-0.7,6.6,0.6,3.8,3.9c-2.8,3.3-8,5.2-12.9,7
							C289.8,375.1,280.7,376.4,276.3,372.1z"/>
					</g>
					<g id="XMLID_3396_">
						<path id="XMLID_3406_" class="st13" d="M321.4,362.7c0,0,0.9,1.2,1.1,3.4c0.1,1.3-2.2,6.1-7.2,9.6c-5,3.6-11.7,4.9-14.7,6.4
							c-3,1.5-5.6,3.8-9.1,5.3c-3.7,1.6-7.2,2.7-11.3,0.9c-0.9-0.9-2.1-3.3-1.9-3.5C278.7,384,321.4,362.7,321.4,362.7z"/>
						<path id="XMLID_3404_" class="st8" d="M289.9,363.3c0.4,0.2,0.8,0.3,1.2,0.5c0.4,0.1,0.8,0,1.3,0c1-0.1,2-0.3,3-0.5
							c2.4-0.6,4.8-1.5,7.2-2.2c5-1.5,10.4-4.2,14-3.7c3.7,0.6,7.6,4.1,3.8,10.1c-1.1,1.7-3.4,4.8-5.4,6.1
							c-5.2,3.5-11.1,4.2-14.7,5.8c-4.6,2-6.9,4.7-11.3,6c-5.7,1.7-9.6,0.8-10.9-0.5c-0.7-0.8-1-5.4-2.5-8.8c-1.2-2.9-1.5-5-0.4-5.1
							c0.2,0.4,0.7,0.6,1.1,0.9c0.4,0.4,0.9,0.6,1.5,0.8c0.8,0.2,1.5,0.3,2.3,0.3c1.4,0.1,2.8,0.1,4.1-0.3c0.4-0.1,0.8-0.3,1-0.6
							c0.3-0.4,0.4-1,0.4-1.5c0-0.5,0-0.9,0-1.4c0-0.3,0-0.5,0.1-0.7c0.1-0.3,0.3-0.5,0.6-0.7c0.7-0.6,1.5-1.2,1.9-2.1
							c0.3-0.7,0.3-1.5,0.2-2.2c0-0.1,0-0.3,0.1-0.4c0.1-0.2,0.4-0.1,0.6,0C289.4,363.1,289.7,363.2,289.9,363.3z"/>
						<path id="XMLID_530_" class="st14" d="M289.9,363.3c0.4,0.2,0.8,0.3,1.2,0.5c0.4,0.1,0.8,0,1.3,0c1-0.1,2-0.3,3-0.5
							c2.4-0.6,4.8-1.5,7.2-2.2c5-1.5,10.4-4.2,14-3.7c3.7,0.6,7.6,4.1,3.8,10.1c-1.1,1.7-3.4,4.8-5.4,6.1
							c-5.2,3.5-11.1,4.2-14.7,5.8c-4.6,2-6.9,4.7-11.3,6c-5.7,1.7-9.6,0.8-10.9-0.5c-0.7-0.8-1-5.4-2.5-8.8c-1.2-2.9-1.5-5-0.4-5.1
							c0.2,0.4,0.7,0.6,1.1,0.9c0.4,0.4,0.9,0.6,1.5,0.8c0.8,0.2,1.5,0.3,2.3,0.3c1.4,0.1,2.8,0.1,4.1-0.3c0.4-0.1,0.8-0.3,1-0.6
							c0.3-0.4,0.4-1,0.4-1.5c0-0.5,0-0.9,0-1.4c0-0.3,0-0.5,0.1-0.7c0.1-0.3,0.3-0.5,0.6-0.7c0.7-0.6,1.5-1.2,1.9-2.1
							c0.3-0.7,0.3-1.5,0.2-2.2c0-0.1,0-0.3,0.1-0.4c0.1-0.2,0.4-0.1,0.6,0C289.4,363.1,289.7,363.2,289.9,363.3z"/>
						<path id="XMLID_3399_" class="st10" d="M307.1,367.2c0,0-1.5-5.2-5.6-5.9c0,0-1.4-0.4-2.1,0.7c0,0,3.7-0.1,6,5.9
							c0,0,0.3,0.4,1,0.1C306.6,367.9,307.2,367.7,307.1,367.2z"/>
						<path id="XMLID_3398_" class="st10" d="M296.1,363c0,0,0-0.2,0.9-0.5c0.6-0.2,1.1-0.1,1.1-0.1s3.1,0.7,4.6,6.2
							c0,0,0.1,0.7-0.7,1c-0.8,0.3-1.1-0.4-1.1-0.4S299.2,363.5,296.1,363z"/>
						<path id="XMLID_3397_" class="st10" d="M293.1,363.7c0,0,0.1-0.4,0.8-0.5c0.9-0.1,1.1,0.2,1.1,0.2s2.4,1.8,3.3,6.4
							c0,0,0.2,0.8-0.8,1c-1.1,0.3-1.1-0.6-1.1-0.6S294.9,364.3,293.1,363.7z"/>
					</g>
				</g>
				<g id="XMLID_3393_">
					<path id="XMLID_3394_" class="st4" d="M259.3,302.9c5.6,9.9,19.5,39.7,26.7,54.5c0,0-4.9,6.8-14.4,8.1L234,313.7l11.2-9.4
						L259.3,302.9z"/>
				</g>
			</g>
			<g id="XMLID_3296_">
				<g id="XMLID_3370_">
					<path id="XMLID_3371_" class="st2" d="M131.1,292.7c0,0,45.4-13.7,53.3-15.9c7.9-2.2,22.4-5.1,26.8-3.1c4.4,2,6.9,5.5,9.6,9.7
						c2.8,4.4,4.9,8.4,4.9,8.4s-29.8,8.1-47.7,8.1S131.1,292.7,131.1,292.7z"/>
				</g>
				<g id="XMLID_3368_">
					<path id="XMLID_3369_" class="st4" d="M134.3,274.8c-2.9,9.7-6.6,27.1,6.6,39.7c5.1,4.9,34.4,20.7,52.4,15.1
						c20.1-6.2,44.1-18.1,44.1-18.1s12.1,0.7,16.1-1.6c4-2.3,6.4-6.1,5.8-7.1c-6.3-12.9-11.5-19.8-25.1-18.4
						c-16.6,1.7-44.3,6.7-44.3,6.7L134.3,274.8z"/>
				</g>
			</g>
		</g>
		<g>
			<path class="st4" d="M201.9,204.4c-8.6-7.5-20.7-4.1-27.4,2.4c-10.3,10-16.4,22.7-14.1,29C163,243,201.9,204.4,201.9,204.4z"/>
			<g id="XMLID_16551_">
				<g id="XMLID_16552_">
					<path class="st4" d="M303.5,248.4c0.2-1.2-0.8-2.7-2.9-3.7l-23.8-12.2c-3.1-1.6-8.3-1.9-11.6-0.8l-21.8,7.5
						c-1.9,0.7-2.9,1.6-3,2.5c0,0.7-0.4,3.2-0.4,4c0,0.6,0.5,1.3,1.5,1.8c2.4,1.2,7.9,1.7,12.2,0.9l5.5-0.9
						c4.3-0.7,9.8-0.3,12.2,0.9c1.6,0.8,2.8,2.1,3.3,3.4l-1.3,4.4c-0.2,0.8-0.4,1.6,0,2.5l-0.4,1.4c-0.5,1.7-0.6,3.4,3.5,5.3
						c3.1,1.4,6.2,1.1,8.4-0.3l16.9-10.9c0.7-0.5,1.2-1.1,1.2-1.7C303.1,251.6,303.4,249,303.5,248.4z"/>
					<path class="st13" d="M275.9,254.7l0.1-11.5l-7.2-1.9l-0.7,6.1c1.3,0.2,2.5,0.5,3.3,0.9c1.6,0.8,2.8,2.1,3.3,3.4l-0.5,1.8
						L275.9,254.7z"/>
					<path class="st4" d="M302.2,245.7c2.2,2,2.3,2.6,1.7,10.5c-0.6,7.9-2.4,8.1-4.4,6.7c-2-1.4-3.4-5.1-5.9-3.6L302.2,245.7z"/>
					<path id="XMLID_17540_" class="st8" d="M241.9,243.5c2.4,1.2,7.9,1.7,12.2,0.9l5.5-0.9c4.3-0.7,9.8-0.3,12.2,0.9
						c2.4,1.2,4,3.6,3.5,5.3l-1.9,6.5c-0.5,1.7-0.6,3.4,3.5,5.3c3.1,1.4,6.2,1.1,8.4-0.3l16.9-10.9c2.2-1.4,1.5-3.9-1.6-5.4
						l-23.8-12.2c-3.1-1.6-8.3-1.9-11.6-0.8l-21.8,7.5C240.2,240.4,239.5,242.3,241.9,243.5z"/>
					<path id="XMLID_512_" class="st15" d="M241.9,243.5c2.4,1.2,7.9,1.7,12.2,0.9l5.5-0.9c4.3-0.7,9.8-0.3,12.2,0.9
						c2.4,1.2,4,3.6,3.5,5.3l-1.9,6.5c-0.5,1.7-0.6,3.4,3.5,5.3c3.1,1.4,6.2,1.1,8.4-0.3l16.9-10.9c2.2-1.4,1.5-3.9-1.6-5.4
						l-23.8-12.2c-3.1-1.6-8.3-1.9-11.6-0.8l-21.8,7.5C240.2,240.4,239.5,242.3,241.9,243.5z"/>
				</g>
				<g>
					<g id="XMLID_517_">
						<path class="st13" d="M294.8,244.6c0-0.2-0.2-0.4-0.5-0.6c-0.7-0.4-1.9-0.4-2.7-0.1c-0.4,0.2-0.6,0.4-0.6,0.7
							c0,0.2-0.1,0.8-0.1,0.9c0,0.2,0.1,0.4,0.5,0.6c0.7,0.4,1.9,0.4,2.7,0.1c0.4-0.2,0.6-0.4,0.6-0.6
							C294.7,245.5,294.8,244.8,294.8,244.6z"/>
						<path class="st2" d="M289.1,247c0-0.2-0.2-0.4-0.5-0.6c-0.7-0.4-1.9-0.4-2.7-0.1c-0.4,0.2-0.6,0.4-0.6,0.6
							c0,0.2-0.1,0.8-0.1,1c0,0.2,0.1,0.4,0.5,0.6c0.7,0.4,1.9,0.4,2.7,0.1c0.4-0.2,0.6-0.4,0.6-0.6
							C289,247.8,289.1,247.2,289.1,247z"/>
						<path class="st13" d="M289.4,244.4c0-0.2-0.1-0.4-0.5-0.6c-0.7-0.4-1.9-0.4-2.7-0.1c-0.4,0.2-0.6,0.4-0.6,0.6
							c0,0.2-0.1,0.8-0.1,1c0,0.2,0.1,0.5,0.5,0.6c0.7,0.4,1.9,0.4,2.7,0.1c0.4-0.2,0.6-0.4,0.6-0.6
							C289.3,245.2,289.4,244.6,289.4,244.4z"/>
						<path class="st2" d="M294.5,247.3c0-0.2-0.1-0.4-0.5-0.6c-0.7-0.4-1.9-0.4-2.7-0.1c-0.4,0.2-0.6,0.4-0.6,0.6
							c0,0.2-0.1,0.8-0.1,0.9c0,0.2,0.1,0.5,0.5,0.7c0.7,0.4,1.9,0.4,2.7,0.1c0.4-0.2,0.6-0.4,0.6-0.6
							C294.4,248.1,294.4,247.4,294.5,247.3z"/>
					</g>
					<g id="XMLID_523_">
						<path id="XMLID_529_" class="st4" d="M291.6,243.9c-0.8,0.3-0.9,0.9-0.2,1.3c0.7,0.4,1.9,0.4,2.7,0.1c0.8-0.3,0.9-0.9,0.2-1.3
							C293.6,243.7,292.4,243.6,291.6,243.9z"/>
						<path id="XMLID_528_" class="st4" d="M285.9,246.3c-0.8,0.3-0.9,0.9-0.2,1.3c0.7,0.4,1.9,0.4,2.7,0.1c0.8-0.3,0.9-0.9,0.2-1.3
							C287.9,246,286.7,246,285.9,246.3z"/>
						<path id="XMLID_527_" class="st4" d="M286.2,243.7c-0.8,0.3-0.9,0.9-0.2,1.3c0.7,0.4,1.9,0.4,2.7,0.1c0.8-0.3,0.9-0.9,0.2-1.3
							C288.2,243.4,287,243.4,286.2,243.7z"/>
						<path id="XMLID_526_" class="st4" d="M291.3,246.5c-0.8,0.3-0.9,0.9-0.2,1.3c0.7,0.4,1.9,0.4,2.7,0.1c0.8-0.3,0.9-0.9,0.2-1.3
							S292.1,246.2,291.3,246.5z"/>
					</g>
				</g>
				<g>
					<polygon class="st2" points="273.1,234.1 270.6,232.7 267.7,233.9 265.2,232.5 262.3,233.6 262.2,234.7 263.7,235.5 262,236.2 
						261.9,237.3 264.4,238.7 267.3,237.5 269.8,238.9 272.7,237.8 272.8,236.7 271.3,235.9 273,235.2 					"/>
					<polygon id="XMLID_518_" class="st4" points="270.6,232.7 267.7,233.9 265.2,232.5 262.3,233.6 264.9,235.1 262,236.2 
						264.5,237.6 267.4,236.5 269.9,237.9 272.8,236.7 270.3,235.3 273.1,234.1 					"/>
					<polygon class="st13" points="267.4,236.5 267.3,237.5 264.4,238.7 264.5,237.6 					"/>
					<polygon class="st13" points="270.3,235.3 271.3,235.9 273,235.2 273.1,234.1 					"/>
					<polygon class="st13" points="272.8,236.7 272.7,237.8 269.8,238.9 269.9,237.9 					"/>
					<polygon class="st13" points="264.9,235.1 262.3,233.6 262.2,234.8 263.7,235.5 					"/>
				</g>
			</g>
			<path class="st12" d="M243.3,231.8c6-1.4,9.6-0.3,14.7-0.5c1.6-0.1,3.1-1,3.9-0.8c1.6,0.3,1.4,1.9,0.4,3c-0.9,1-2.2,2.1-6.6,2.8
				c-3.8,0.6-3.9,0.2-8.4,1.5l-4.8,2.3l-1.7-4.2L243.3,231.8z"/>
			<path class="st12" d="M254,231.3c-3.9-1.6-7.9-1.7-10.1-1.2c-4.9,1.2-3.1,6.2-3.1,6.2L254,231.3z"/>
			<g>
				<g>
					<g id="XMLID_3278_">
						<g id="XMLID_3279_">
							<polygon id="XMLID_3280_" class="st12" points="229.9,205.9 215.4,218.9 196.2,212.2 209.9,193.1 							"/>
						</g>
					</g>
					<g id="XMLID_3270_">
						<g id="XMLID_3273_">
							<path id="XMLID_3274_" class="st16" d="M244.3,181c0,0,4.9,7.4,4.3,8.1c-0.6,0.7-4.1,1.4-4.1,1.4L244.3,181z"/>
						</g>
						<g id="XMLID_3271_">
							<path id="XMLID_3272_" class="st12" d="M230.8,160.6c9.8,2.1,12.7,6.4,13.6,22c1,16.3-0.7,21.5-2.8,23.7
								c-1.4,1.5-9.5,1.8-13.6,0.6c-5.1-1.4-16.6-5.5-22-13.7c-6.3-9.7-8-22.8-1.2-28.1C214.4,157.6,226.8,159.8,230.8,160.6z"/>
						</g>
						<path class="st16" d="M228.4,207.1c4.2,1.1,10.7,0.6,12.7-0.4c-0.2,0-3.2,0.8-7.1-0.4c-4-1.2-6.5-3-6.5-3L228.4,207.1z"/>
					</g>
					<g id="XMLID_522_">
						<g id="XMLID_3267_">
							<g id="XMLID_3268_">
								<path id="XMLID_3269_" class="st13" d="M246.6,167.4C246.6,167.4,246.6,167.4,246.6,167.4c-2.8,1.9-6.2,2.6-9.5,3
									c0.2,2.7-0.7,5.3-1.6,7.8c-0.6,1.7-2.8,7.2-5,4.1c-1.6-2.2-3-4.2-6.1-3.8c-5.1,0.8-5.8,7.3-2.6,11.3c3.2,4,6.2,2.4,6.2,2.4
									s0.3,7-3.5,11.9c0,0-5.6,3.3-13.3,0.5c-4.9-1.7-11.8-8.1-14.3-13c-6.9-13.4-6.6-26.2,2.2-29.9c1-6.3,5.9-9.2,11.6-10.5
									c7.9-1.8,15.9,3.3,23.6,0.2c1.6-0.6,3.1-1.6,4.8-2.1c0.9-0.3,2-0.5,2.8,0.1c0.7,0.5,1,1.4,1.2,2.2c0.3,1.5,0.4,3.2-0.4,4.5
									c1.2-0.5,2.3-1.1,3.6-1.2c1.3-0.2,2.6,0.1,3.6,0.9c0.9,0.8,1.3,2,1.4,3.2C251.5,162.4,249.4,165.5,246.6,167.4z"/>
							</g>
						</g>
						<g id="XMLID_3264_">
							<g id="XMLID_3265_">
								<path id="XMLID_3266_" class="st13" d="M198.9,163.9l-5.9-3.5c1-1.6,3.1-2.2,4.7-1.2C199.4,160.2,199.9,162.3,198.9,163.9z"
									/>
							</g>
						</g>
					</g>
				</g>
				<path class="st8" d="M201.9,204.4c-10.8-3.2-19.8-1.6-33.9,11.9C152.4,231,141,256.1,137,283.1c0,0,0.5,12.5,15,20.8
					c15.4,8.8,39.1,6.7,48.6-9.2c0,0,2-14.1,8.3-21.7c4.1-4.9,13.6-15.7,20.6-23.4c6.1-6.7,12.5-23.1,2.9-30.9
					c-2.8-2.3-5.6-4-9.5-6.6C213,213.9,200.1,208,201.9,204.4z"/>
				<path class="st17" d="M201.9,204.4c-10.8-3.2-19.8-1.6-33.9,11.9C152.4,231,141,256.1,137,283.1c0,0,0.5,12.5,15,20.8
					c15.4,8.8,39.1,6.7,48.6-9.2c0,0,2-14.1,8.3-21.7c4.1-4.9,13.6-15.7,20.6-23.4c6.1-6.7,12.5-23.1,2.9-30.9
					c-2.8-2.3-5.6-4-9.5-6.6C213,213.9,200.1,208,201.9,204.4z"/>
				<path class="st18" d="M230.4,248.5c0.2-0.2,0.3-0.4,0.5-0.6c0.1-0.1,0.1-0.2,0.2-0.3c0.2-0.2,0.3-0.5,0.5-0.7
					c0-0.1,0.1-0.1,0.1-0.2c0.2-0.3,0.4-0.7,0.7-1c0,0,0-0.1,0.1-0.1c0.2-0.3,0.4-0.6,0.6-1c0-0.1,0.1-0.2,0.1-0.2
					c0.2-0.3,0.3-0.6,0.5-1c0-0.1,0.1-0.1,0.1-0.2c0.6-1.2,1.2-2.5,1.7-3.8c0,0,0,0,0-0.1c1.2-3.2,1.9-6.5,1.8-9.8
					c-3.3,5.4-7.5,10.2-12.5,14.1c-6.3,5-13.8,8.5-19.8,13.9c-6.3,5.7-11.4,13-16.9,19.5c-2.2,2.6-5.5,7.7-8.9,7.5
					c-4.1-0.3-7.3-5.9-9.1-9.7c-2.8-6-4.8-13.4-8.6-18.8c-3.3-4.8-8.5-11.1-14.1-9.4c-4.9,11.1-8.5,23.6-10.5,36.5
					c0,0,0.5,12.5,15,20.8c1.3,0.7,2.6,1.4,4,2c0.4,0.1,0.8,0.2,1.2,0.3c2.1,0.5,4,1.5,6.1,2c0.3,0.1,0.5,0.1,0.8,0.1
					c0.3,0.1,0.6,0.1,0.9,0.2c0.3,0.1,0.6,0.1,0.9,0.1c0.3,0,0.5,0.1,0.8,0.1c0.3,0,0.7,0.1,1,0.1c0.2,0,0.5,0,0.7,0.1
					c0.4,0,0.7,0.1,1.1,0.1c0.2,0,0.4,0,0.6,0c0.4,0,0.7,0,1.1,0c0.2,0,0.4,0,0.6,0c0.4,0,0.7,0,1.1,0c0.2,0,0.5,0,0.7,0
					c0.3,0,0.7,0,1-0.1c0.3,0,0.5,0,0.8-0.1c0.3,0,0.6-0.1,0.9-0.1c0.3,0,0.6-0.1,0.9-0.1c0.3,0,0.6-0.1,0.8-0.1
					c0.3,0,0.6-0.1,1-0.2c0.2,0,0.4-0.1,0.6-0.1c0.4-0.1,0.9-0.2,1.3-0.3c0.1,0,0.2,0,0.3-0.1c7.9-1.8,15.1-6.2,19.4-13.3
					c0,0,0.1-0.7,0.3-1.8c0.1-0.3,0.1-0.7,0.2-1.1c0.2-0.8,0.4-1.7,0.6-2.7c0.8-3,1.9-6.9,3.6-10.4c0.6-1.2,1.2-2.3,1.9-3.4
					c0.3-0.5,0.7-1.1,1.1-1.6c0.2-0.2,0.4-0.5,0.6-0.7c0.3-0.3,0.5-0.6,0.8-1c3.9-4.5,10.9-12.6,17-19.4c0.9-1,1.9-2.1,2.7-3
					c0.2-0.2,0.4-0.5,0.7-0.8C230.3,248.7,230.3,248.6,230.4,248.5z"/>
				<path class="st12" d="M294.2,264.4c-3.3,5.3-4,8.7-18.5,9.8c0,0-27.2,17.1-35.9,20.2c-8.7,3.1-11.9-1.8-13.7-9.7
					c-1.8-7.9-6.6-37.7-6.6-37.7s-3.8-18.4,11.7-28.9c6.5,5,10,10.1,11.1,18.9c1.3,10.5,3.2,35.3,3.2,35.3s22.9-10,26.4-13.4
					c0.9-0.9,1.4-1.7,2.7-3.5c1.5-2,3.5-4.2,4.1-6.8c0.9-4.2,2.8-3.6,3.5-1.3c1.4,4.6-0.1,9-0.1,9s7.1,5.6,10.6,3.7l0.9-0.6l0,0
					c0.7-0.5,1.7-0.5,2.6,0.2C296.4,260.5,296.2,261.2,294.2,264.4z"/>
				<path class="st4" d="M229.4,216.4c8.7,4.1,13,10.7,13.9,20.6c1,10,2.1,27.2,2.1,27.2s-0.5,6.3-8.9,9.2
					c-8.3,2.9-14.4-1.7-14.4-1.7l-3.5-22.5C218.7,249.3,213.8,224.9,229.4,216.4z"/>
			</g>
		</g>
	</g>
</g>
<g id="Puff_1_">
	<g id="Puff">
		<path class="st8" d="M166.1,289.2c-14.3-17.5-27.5-38.4-38.5-44.7c-19.8-11.4-59.9,13.6-64.3,70.7s37.7,89,78.5,97.8
			c20.9,4.5,48.2-0.1,59-3.8c32.8-11.3,51.1-27.2,59-49.2c8.6-24.1,2.1-38.5-9.1-44.7c-5-2.8-10.8-3.6-16.5-2.7
			C194.3,318.9,177.1,302.7,166.1,289.2z"/>
		<path class="st15" d="M215.8,403.1c0.6-0.3,1.2-0.6,1.8-0.8c2.9-14,1.2-27.1-4.9-39.3c-6-11.8-16.2-23-31.3-34
			c-22.3-16.2-31-31.6-39.4-46.5c-3.1-5.5-6-10.6-9.5-15.7c-7.9-11.4-15.7-17.3-24.7-18.8c-3.5-0.6-7.1-0.4-10.9,0.4
			c-1.2,0.8-2.5,1.7-3.7,2.6c5.2-1.7,9.9-2.1,14.4-1.4c8.5,1.4,16,7.1,23.6,18.1c3.5,5,6.4,10.2,9.5,15.6c8.5,15,17.3,30.6,39.9,47
			C200,344.6,223.9,367.2,215.8,403.1z"/>
		<path class="st19" d="M141.7,413c20.9,4.5,48.2-0.1,59-3.8c32.8-11.3,51.1-27.2,59-49.2c0.2-0.6,0.4-1.2,0.6-1.7
			c-0.2-0.1-0.3-0.1-0.5-0.2c-8.4-2.7-17.4,0.5-25.7,3.5c-20.9,7.4-44.5,12.9-64.7,3.8c-13.3-6-27-15.3-34.1-28.1
			s-10.3-27.4-15.5-41c-2.3-6.2-4.5-14.1-9.7-20.1c-4.9-5.6-11.3-9.7-18.8-9.7c-6.1,0-11.7,1.8-17,8.1c-5.7,10.9-9.8,24.5-11,40.6
			C58.9,372.3,100.9,404.2,141.7,413z"/>
	</g>
</g>
<g id="Console_1_">
	<g id="Console">
		<g id="XMLID_17786_">
			<path id="XMLID_17793_" class="st2" d="M433.4,365.5l28.4-16.4c1.4-0.8,2.6-2.8,2.6-4.4l0,0.3c0-1.6-1.1-3.6-2.6-4.4l-57.1-33
				c-1.4-0.8-3.7-0.8-5.1,0l-28.4,16.4c-1.4,0.8-2.6,2.8-2.6,4.4l0-0.3c0,1.6,1.1,3.6,2.6,4.4l57.1,33
				C429.8,366.4,432,366.4,433.4,365.5z"/>
			<path id="XMLID_17788_" class="st13" d="M430.9,322.8l30.9,17.9c1.4,0.8,2.6,2.8,2.6,4.4l0-0.3c0,1.6-1.1,3.6-2.6,4.4l-28.4,16.4
				c-0.7,0.4-1.6,0.6-2.6,0.6L430.9,322.8z"/>
			<path id="XMLID_17787_" class="st4" d="M461.9,343.6L433.5,360c-1.4,0.8-3.7,0.8-5.1,0l-57.1-33c-1.4-0.8-1.4-2.1,0-2.9
				l28.4-16.4c1.4-0.8,3.7-0.8,5.1,0l57.1,33C463.3,341.4,463.3,342.8,461.9,343.6z"/>
		</g>
		<g>
			<path class="st8" d="M461.9,338.2v2.7l-29.5,17c-0.3,0.2-0.7,0.3-1.1,0.4c-0.6,0.1-1.3,0-1.9-0.4l-58.2-33.6v-2.8l57.1,33.1
				c0.7,0.4,1.6,0.6,2.5,0.6c0.9,0,1.8-0.2,2.6-0.6L461.9,338.2z"/>
			<path class="st15" d="M461.9,338.2v2.7l-29.5,17c-0.3,0.2-0.7,0.3-1.1,0.4c-0.1,0-0.3,0-0.4,0v-3.1c0.9,0,1.8-0.2,2.6-0.6
				L461.9,338.2z"/>
		</g>
		<g id="XMLID_17779_">
			<path id="XMLID_17775_" class="st2" d="M433.5,354.6l28.4-16.4c1.4-0.8,2.6-2.8,2.6-4.4l0-5.3c0-1.6-1.1-3.6-2.6-4.4l-57.1-33
				c-1.4-0.8-3.7-0.8-5.1,0l-28.4,16.4c-1.4,0.8-2.6,2.8-2.6,4.4l0,5.3c0,1.6,1.1,3.5,2.6,4.3l57.1,33.1
				C429.8,355.4,432.1,355.4,433.5,354.6z"/>
			<path id="XMLID_17785_" class="st13" d="M430.9,306.2l30.9,17.9c1.4,0.8,2.6,2.8,2.6,4.4v5.3c0,1.6-1.1,3.6-2.6,4.4l-28.4,16.4
				c-0.7,0.4-1.6,0.6-2.6,0.6V306.2z"/>
			<path id="XMLID_17778_" class="st4" d="M461.9,327l-28.4,16.4c-1.4,0.8-3.7,0.8-5.1,0l-57.1-33c-1.4-0.8-1.4-2.1,0-2.9l28.4-16.4
				c1.4-0.8,3.7-0.8,5.1,0l57.1,33C463.3,324.9,463.3,326.2,461.9,327z"/>
		</g>
		<path id="XMLID_17784_" class="st8" d="M422.3,314c3.1,1.8,3.1,4.7,0,6.5c-3.1,1.8-8.2,1.8-11.4,0c-3.1-1.8-3.1-4.7,0-6.5
			C414,312.2,419.1,312.2,422.3,314z"/>
		<path id="XMLID_538_" class="st8" d="M375.9,315.9c0.6,0.3,1,1.1,1,1.7c0,0.6-0.4,0.9-1,0.6c-0.6-0.3-1-1.1-1-1.7
			C374.9,315.9,375.3,315.6,375.9,315.9z"/>
		<path id="XMLID_535_" class="st8" d="M375.9,319.8c0.6,0.3,1,1.1,1,1.7s-0.4,0.9-1,0.6c-0.6-0.3-1-1.1-1-1.7
			C374.9,319.7,375.3,319.5,375.9,319.8z"/>
	</g>
</g>
<g id="Speach_Bubble">
	<g id="Speach_Bubble_1_">
		<g id="XMLID_555_">
			<path id="XMLID_561_" class="st8" d="M118.1,150.5l0-15l12.7-1.1c0.2,0,0.4,0,0.5,0.1c0.5,0.3,10.7,6.1,10.9,6.2
				c0.5,0.3,0.6,1,0.2,1.4l-13.4,14.6L118.1,150.5z"/>
			<path id="XMLID_559_" class="st8" d="M128.9,156.7l13.4-14.6c0.6-0.6,0.1-1.6-0.8-1.6l-12.7,1.1V156.7z"/>
			<path id="XMLID_558_" class="st8" d="M118.1,135.5l10.8,6.2l12.7-1.1c0.2,0,0.3,0,0.4,0.1c-1-0.6-10.3-5.9-10.7-6.2
				c-0.1-0.1-0.3-0.1-0.5-0.1L118.1,135.5z"/>
			<path id="XMLID_556_" class="st6" d="M118.1,135.5l10.8,6.2l12.7-1.1c0.2,0,0.3,0,0.4,0.1c-1-0.6-10.3-5.9-10.7-6.2
				c-0.1-0.1-0.3-0.1-0.5-0.1L118.1,135.5z"/>
		</g>
		<g id="Speach_Bubble_2_">
			<g id="XMLID_543_">
				<path id="XMLID_547_" class="st8" d="M128.9,123.6c0-2-1.4-4.4-3.1-5.4l-2.6-1.5c-1.7-1-4.6-1-6.3,0l-39.3,22.7
					c-1.7,1-3.1,3.4-3.1,5.4V188c0,2,1.4,4.4,3.1,5.4l2.6,1.5c1.7,1,4.6,1,6.3,0l39.3-22.7c1.7-1,3.1-3.4,3.1-5.4L128.9,123.6z"/>
				<path id="XMLID_546_" class="st15" d="M74.5,188c0,2,1.4,4.4,3.1,5.4l2.6,1.5c1.6,0.9,4,1,5.8,0.3c-1.5,0.6-2.6-0.3-2.6-2.1
					l0-43.2c0-1,0.4-2.1,0.9-3.1l-8.8-5.1c-0.6,1-0.9,2.1-0.9,3.1V188z"/>
				<path id="XMLID_545_" class="st6" d="M128.8,122.7c-0.4-1.3-1.6-1.8-3-0.9l-39.3,22.7c-0.9,0.5-1.7,1.3-2.2,2.3l-8.8-5.1
					c0.6-1,1.3-1.8,2.2-2.3l39.3-22.7c1.7-1,4.6-1,6.3,0l2.6,1.5C127.2,119,128.5,120.9,128.8,122.7z"/>
			</g>
		</g>
		<polygon id="Heart" class="st3" points="97.7,147.7 101.2,145.7 101.2,148.3 104.8,146.2 104.8,151.8 108.3,149.8 108.3,144.2 
			111.9,142.1 111.9,139.5 115.4,137.5 115.4,140.1 119,138 119,143.6 122.5,141.6 122.5,149.8 119,151.8 119,155.9 115.4,158 
			115.4,162.1 111.9,164.1 111.9,168.3 108.3,170.3 108.3,174.4 104.8,176.5 104.8,172.4 101.2,174.4 101.2,170.3 97.7,172.4 
			97.7,168.3 94.1,170.3 94.1,166.2 90.5,168.3 90.5,160 94.1,158 94.1,152.4 97.7,150.3 		"/>
	</g>
</g>
</svg>
